{
    "version": "<string> service version number: mayor.minor.patch",
    "mongo_database": {
        "hosts": [
            "<string> host:port (library seems to autodiscover master)",
            "<string> anotherhost:port"
        ],
        "database": "<string> database name",
        "user": "[optional] <string> username",
        "password": "[optional] <string> user password"
    },
    "postgresql_database": {
        "hosts": [
            "<string> host:port (the first one is the master!)",
            "<string> anotherhost:port"
        ],
        "database": "<string> database name",
        "user": "[optional] <string> username",
        "password": "[optional] <string> user password"
    },
    "redis_cache": {
        "master_name": "[optional] <string> name of master in a failover configuration. If provided, hosts should be the sentinels!",
        "hosts": [
            "<string> host:port (sentinel port if failover master provided)",
            "<string> anotherhost:port (sentinel port if failover master provided)"
        ],
        "database": "[optional] <int> database number (0 is default one)",
        "password": "[optional] <string> password if needed server-side"
    },
    "rabbitmq": {
        "hosts": [
            "<string> host:port",
            "<string> anotherhost:port"
        ],
        "user": "<string> username",
        "password": "<string> user password",
        "default_exchange": "<string> default exchange to be used",
        "queues_config": {
            "<queue_name>": {
                "topic": "<string> Topic expression queue matches against",
                "options": {
                    "exclusive": "<bool> The queue vanishes with consumers",
                    "durable": "<bool> The queue itself is persistent",
                    "arguments": "<map[string]interface{}> Additional arguments for queue, refer to RabbitMQ documentation"
                },
                "temporary": "<bool> The queue doesn't persist messages",
                "ack": "<bool> Queue messages need acknowledgment",
                "max_messages": "<int> Maximum number of processed messages at once consumer-side (0 for infinite)"
            },
            "<another_queue_name>...": {}
        },
        "consumer_queues": ["<string> here an entry per queue consumed, 'ala' switch"]
    },
    "http_server": {
        "port": "<uint16> Port to listen to"
    },
    "logger": {
        "level": "[optional] <string> the minimum level that will be looged out, debug>info>warn>error",
        "show_timestamp": "[optional] <bool> whether to include the timestamp before the log text (microseconds)",
        "show_source_file": "[optional] <bool> whether to include the full path of the file the log was generated from",
        "slack": {
            "endpoint": "[optional] <string> Set here slack webhook url"
        }
    }
}